{
  "project_info": {
    "project_number": "121571404792",
    "firebase_url": "https://diklinik.firebaseio.com",
    "project_id": "diklinik",
    "storage_bucket": "diklinik.appspot.com"
  },
  "client": [
    {
      "client_info": {
        "mobilesdk_app_id": "1:121571404792:android:0ba10e4707b0e07825840d",
        "android_client_info": {
          "package_name": "com.diklinik.android"
        }
      },
      "oauth_client": [
        {
          "client_id": "121571404792-bbjokk2afjoa3dbfum6nua2s0igcrc3q.apps.googleusercontent.com",
          "client_type": 1,
          "android_info": {
            "package_name": "com.diklinik.android",
            "certificate_hash": "26a830428f32a07f260c5e565e2aedd9bb0d380c"
          }
        },
        {
          "client_id": "121571404792-5s0j2fav4iudb54lb0n2gtm1taaf0mnu.apps.googleusercontent.com",
          "client_type": 3
        }
      ],
      "api_key": [
        {
          "current_key": "AIzaSyDL2Jjgfo25mrb5qEjH4ox2_PlcODp5_Xs"
        }
      ],
      "services": {
        "appinvite_service": {
          "other_platform_oauth_client": [
            {
              "client_id": "121571404792-5s0j2fav4iudb54lb0n2gtm1taaf0mnu.apps.googleusercontent.com",
              "client_type": 3
            }
          ]
        }
      }
    }
  ],
  "configuration_version": "1"
}